{
	//menubar_section
	menubar_section: {
		company_logo: {
			src: "images/conscient_football_logo.png",
			alt: "logo-img"
		},
		menu_list: [
			{
				menu_name: "Product",
				href: "#product",
				title: "menu-about"
			},
			{
				menu_name: "Features",
				href: "#features",
				title: "menu-features"
			},
			{
				menu_name: "Screens",
				href: "#screens",
				title: "menu-screens"
			},
			{
				menu_name: "Contact Us",
				href: "#contactus",
				title: "menu-contact"
			},
			{
				menu_name: "Portfolio",
				href: "#portfolio",
				title: "menu-portfolio"
			}
		]
	},

	//slider_section
	slider_section: {
		slider_heading: "The best football coaching in india",
		slider_image: "images/slider.jpg",
		app_links: {
			playstore_link: "",
			applestore_link: ""
		}
	},

	//about_section
	about_section: {
		about_title: "About Fcb Escola",
		about_content: "Lorhsdo ksk kem ipsum dolor sit amet, consectetur adipiscing elit, sed deiusmodtempor incididunt ut labore et dolore magnaaliqua.Ut enim ad minim veniam, quis nostrud exercitation ullamco laboris isi ut aliquip ex ea commodo consequat. Duis aute irure dolor in reprehenderit in voluptate velit esse cillum dolore eu fugiat nulla pariatur. Excepteur sint occaecat cupidatat non proident, sunt in jksdfkk kldfks oek ocean and the sky market has it own value the n why are you so serius lomo ipusum mculpa Duis aute irure dolor in reprehenderit in voluptate velit esse cillum dolore eu fugiat nulla pariatur. Excepteur sint occaecat cupidatat non proident, sunt in jksdfkk kldfks oek ocean and the sky market has it own value the n why are you so serius lomo ipusum mculpa"
	},

	//mobile_animation_section
	mobile_animation_section: {
		layer1: "images/layer1.jpg",
		layer2: "images/layer2.png",
		layer3: "images/layer3.png",
		layer4: "images/layer4.png",
	},

	//features_section
	features_section: {
		feature_title: "Features",
		feature_content: [
			{
				feature_one_img: {
					src : "images/mobile1.jpg",
					alt : "features-img"
				},
				feature_one_title: "Feature 1",
				feature_one_content: "Lorem ipsum dolor sit amet, consectetur adipiscing elit, sed dojhjkj eiusmodjh hhvhb tempor incidveniam, quis nostrud exercitation ullamco laboris nisi ut aliquip ex eabhf commodo consequat. Duis aute irure d"
			},
			{
				feature_two_img: {
					src : "images/mobile2.png",
					alt : "features-img"
				},
				feature_two_title: "Feature 2",
				feature_two_content: "Lorem ipsum dolor sit amet, consectetur adipiscing elit, sed dojhjkj eiusmodjh hhvhb tempor incidveniam, quis nostrud exercitation ullamco laboris nisi ut aliquip ex eabhf commodo consequat. Duis aute irure d"
			},
			{
				feature_three_img: {
					src : "images/mobile3.jpg",
					alt : "features-img"
				},
				feature_three_title: "Feature 3",
				feature_three_content: "Lorem ipsum dolor sit amet, consectetur adipiscing elit, sed dojhjkj eiusmodjh hhvhb tempor incidveniam, quis nostrud exercitation ullamco laboris nisi ut aliquip ex eabhf commodo consequat. Duis aute irure d"
			}
		]

	},

	//mobile_slider
	mobile_slider_section: [
		{
			src: "images/mobileslider6.png",
			alt: "mobile-slider"
		},
		{
			src: "images/mobileslider1.png",
			alt: "mobile-slider"
		},
		{
			src: "images/mobileslider2.jpg",
			alt: "mobile-slider"
		},
		{
			src: "images/mobileslider3.jpg",
			alt: "mobile-slider"
		},
		{
			src: "images/mobileslider4.png",
			alt: "mobile-slider"
		},
		{
			src: "images/mobileslider5.png",
			alt: "mobile-slider"
		}
	],

	//review_section
	review_section: {
		background_img: "images/background.jpg",
		review: "I loved the design and creativity that pixolo have m anaged to g et out of this. The app works very smoothly d has been used by all my users by ease. They are a young and smart mobile application development company",
		profile_pic: {
			src: "images/profile-icon.png",
			alt: "profile-img"
		},
		profile_name: "Jyoti Pandey"
	}

}
