{
	"title": "Steve Madden",
	"project_type": "website",
	"favicon": "pixolo-fav.png",
	"keywords": "mobile application company, mobile app development, webiste development, UI/UX, steve madden",
	"description": "Pixolo is one of the best Mobile App Development(iOS, Android, Windows) and Web Development company in Mumbai. It has a team of freelance Mobile App & Web Developers that can meet any specifications",
	"color": "black",
	"menubar_section": {
		"company_logo": {
			"alt": "Steve Madden Logo",
			"src": "steve-madden-logo.jpg"
		},
		"menu_list": [{
			"href": "#features",
			"menu_name": "Features",
			"title": "Features"
		}, {
			"href": "abc",
			"menu_name": "abc",
			"title": "abc"
		}, {
			"href": "abc",
			"menu_name": "abc",
			"title": "abc"
		}, {
			"href": "abc",
			"menu_name": "abc",
			"title": "abc"
		}]
	},
	"slider_section": {
		"slider_heading": "I lost a leg, not my life",
		"slider_image": "steve-madden-hero.jpg",
		"app_links": {
			"applestore_link": "anylink",
			"playstore_link": "anylink",
			"website_link": "https://www.firstpost.com/selfmade-kiran"
		}
	},
	"about_section": 
	{
		"about_title": "About Steve Madden",
		"about_content": "Steve Madden, is a publicly traded company based in Long Island City, New York. Founded by the eponymous designer and businessman, Steve Madden, the company designs and markets shoes and fashion accessories for women, men and children. The companys brands include Steve Madden,	Steven by Steve Madden,		Madden Girl,		Freebird by Steven,		Stevies,		Betsey Johnson,		Betseyville,		Report Signature,		Report,		Big Buddha,		Wild Pair,		Cejon,		and Mad Love.		"
	},
	"	layer_animation_section ": [{
		"	layer ": "	frame1.png "
	}, {
		"	layer ": "	frame2.png "
	}, {
		"	layer ": "	frame3.png "
	}, {
		"	layer ": "	frame4.png "
	}],
	"	features_section ": {
		"	feature_content ": [{
			"	feature_content ": "	Great Stories ",
			"	img_alt ": "	Great Steve Madden Stories ",
			"	img_src ": "	feature - 1. jpg ",
			"	feature_title ": "	Covered many great stories of many great and succesful people.All have done something extra - ordinary in their field.They share their expriences with us on the website."
		}, {
			"	feature_content ": "	Featured on Firstpost ",
			"	img_alt ": "	Firstpost ",
			"	img_src ": "	feature - 2. jpg ",
			"	feature_title ": "	The website s were featured on FIrstpost.Firstpost is one of the leading news website in India.	"
		}, {
			"feature_content": "Broken Layout",
			"img_alt": "Broken layout",
			"img_src": "feature-3.jpg",
			"feature_title": "This website is designed using modern designing trends with broken layouts. The layouts are well animated and perfectly sit into place."
}, {
			"feature_content": "Dynamic Content",
			"img_alt": "jekyll dynamic website development",
			"img_src": "feature-4.jpg",
			"feature_title": "This website was used making one of the most modern frameworks known as Jekyll. The layout was made in such a way that it could be easily replicated by only updating an Excel sheet."
}]
	},
	"mobile_slider_section": [{
		"alt": "slider-image",
		"src": "image1.png"
}, {
		"alt": "slider-image",
		"src": "image2.png"
}, {
		"alt": "slider-image",
		"src": "image3.png"
}, {
		"alt": "slider-image",
		"src": "image4.png"
}, {
		"alt": "slider-image",
		"src": "image5.png"
}, {
		"alt": "slider-image",
		"src": "image6.png"
}],
	"review_section": {
		"background_img": "review-bg.jpg",
		"review": "Steve Madden was well built, its specially difficult to achieve this positioning and animation together but that has been done here.",
		"profile_pic": {
			"src": "profile.jpg",
			"alt": "Steve Madden Person"
		},
		"profile_name": "Steve Madden"
	}
}
